\relax 
\providecommand\hyper@newdestlabel[2]{}
\providecommand\HyperFirstAtBeginDocument{\AtBeginDocument}
\HyperFirstAtBeginDocument{\ifx\hyper@anchor\@undefined
\global\let\oldcontentsline\contentsline
\gdef\contentsline#1#2#3#4{\oldcontentsline{#1}{#2}{#3}}
\global\let\oldnewlabel\newlabel
\gdef\newlabel#1#2{\newlabelxx{#1}#2}
\gdef\newlabelxx#1#2#3#4#5#6{\oldnewlabel{#1}{{#2}{#3}}}
\AtEndDocument{\ifx\hyper@anchor\@undefined
\let\contentsline\oldcontentsline
\let\newlabel\oldnewlabel
\fi}
\fi}
\global\let\hyper@last\relax 
\gdef\HyperFirstAtBeginDocument#1{#1}
\providecommand\HyField@AuxAddToFields[1]{}
\providecommand\HyField@AuxAddToCoFields[2]{}
\citation{Chibio}
\citation{smallvol}
\citation{autohome}
\@writefile{toc}{\contentsline {section}{\numberline {1}Hardware in context}{3}{section.1}\protected@file@percent }
\@writefile{toc}{\contentsline {section}{\numberline {2}Hardware description}{3}{section.2}\protected@file@percent }
\@writefile{lof}{\contentsline {figure}{\numberline {1}{\ignorespaces \bf  a)\rm  EZO\(^{\hbox {TM}}\) pH Circuit connected to the expansion port on the Chi.Bio, using the optional Electrically Isolated EZO\(^{\hbox {TM}}\) Carrier Board to reduce noise in the signal \bf  b)\rm  The perforating and tied off piping used to bring oxygen into the media, and the 3D printed gas release mechanism.\\}}{4}{figure.1}\protected@file@percent }
\@writefile{lof}{\contentsline {subfigure}{\numberline{(a)}{\ignorespaces {EZO\(^{\hbox {TM}}\) pH Circuit \& Electrically Isolated EZO\(^{\hbox {TM}}\) Carrier Board}}}{4}{figure.1}\protected@file@percent }
\@writefile{lof}{\contentsline {subfigure}{\numberline{(b)}{\ignorespaces {Oxygen 'Bubbler' and 3D printed gas release}}}{4}{figure.1}\protected@file@percent }
\newlabel{fig:1}{{1}{4}{\bf a)\rm EZO\(^{\hbox {TM}}\) pH Circuit connected to the expansion port on the Chi.Bio, using the optional Electrically Isolated EZO\(^{\hbox {TM}}\) Carrier Board to reduce noise in the signal \bf b)\rm The perforating and tied off piping used to bring oxygen into the media, and the 3D printed gas release mechanism.\\}{figure.1}{}}
\@writefile{lof}{\contentsline {figure}{\numberline {2}{\ignorespaces \bf  a)\rm  Model for the modified lid with holes for the oxygen tubing and pH probe and additional nipples for gas release in addition to the nipples for media and pH buffer solution. \bf  b)\rm  Model for the pH probe holder that keeps the probe at the correct height within the reactor.}}{4}{figure.2}\protected@file@percent }
\@writefile{lof}{\contentsline {subfigure}{\numberline{(a)}{\ignorespaces {3D model of the modified lid rendered in openSCAD}}}{4}{figure.2}\protected@file@percent }
\@writefile{lof}{\contentsline {subfigure}{\numberline{(b)}{\ignorespaces {3D model of the pH probe mount rendered in openSCAD}}}{4}{figure.2}\protected@file@percent }
\newlabel{fig:2}{{2}{4}{\bf a)\rm Model for the modified lid with holes for the oxygen tubing and pH probe and additional nipples for gas release in addition to the nipples for media and pH buffer solution. \bf b)\rm Model for the pH probe holder that keeps the probe at the correct height within the reactor}{figure.2}{}}
\@writefile{toc}{\contentsline {section}{\numberline {3}Design files summary}{5}{section.3}\protected@file@percent }
\@writefile{toc}{\contentsline {section}{\numberline {4}Bill of materials summary}{5}{section.4}\protected@file@percent }
\@writefile{toc}{\contentsline {section}{\numberline {5}Build instructions}{6}{section.5}\protected@file@percent }
\@writefile{toc}{\contentsline {subsection}{\numberline {5.1}\textit  {Software: Measurements and data presentation}}{6}{subsection.5.1}\protected@file@percent }
\@writefile{lof}{\contentsline {figure}{\numberline {3}{\ignorespaces A flowchart showing how measured data is requested and transferred between the app.py and the user interface.}}{8}{figure.3}\protected@file@percent }
\@writefile{lof}{\contentsline {subfigure}{\numberline{(a)}{\ignorespaces {Data flowchart for Chi.Bio software.}}}{8}{figure.3}\protected@file@percent }
\newlabel{fig:3}{{3}{8}{A flowchart showing how measured data is requested and transferred between the app.py and the user interface}{figure.3}{}}
\@writefile{toc}{\contentsline {section}{\numberline {6}Operation instructions}{8}{section.6}\protected@file@percent }
\@writefile{toc}{\contentsline {section}{\numberline {7}Validation and characterization}{8}{section.7}\protected@file@percent }
\gdef \@abspage@last{10}
