\BOOKMARK [1][-]{section.1}{\376\377\000H\000a\000r\000d\000w\000a\000r\000e\000\040\000i\000n\000\040\000c\000o\000n\000t\000e\000x\000t}{}% 1
\BOOKMARK [1][-]{section.2}{\376\377\000H\000a\000r\000d\000w\000a\000r\000e\000\040\000d\000e\000s\000c\000r\000i\000p\000t\000i\000o\000n}{}% 2
\BOOKMARK [1][-]{section.3}{\376\377\000D\000e\000s\000i\000g\000n\000\040\000f\000i\000l\000e\000s\000\040\000s\000u\000m\000m\000a\000r\000y}{}% 3
\BOOKMARK [1][-]{section.4}{\376\377\000B\000i\000l\000l\000\040\000o\000f\000\040\000m\000a\000t\000e\000r\000i\000a\000l\000s\000\040\000s\000u\000m\000m\000a\000r\000y}{}% 4
\BOOKMARK [1][-]{section.5}{\376\377\000B\000u\000i\000l\000d\000\040\000i\000n\000s\000t\000r\000u\000c\000t\000i\000o\000n\000s}{}% 5
\BOOKMARK [2][-]{subsection.5.1}{\376\377\000S\000o\000f\000t\000w\000a\000r\000e\000:\000\040\000M\000e\000a\000s\000u\000r\000e\000m\000e\000n\000t\000s\000\040\000a\000n\000d\000\040\000d\000a\000t\000a\000\040\000p\000r\000e\000s\000e\000n\000t\000a\000t\000i\000o\000n}{section.5}% 6
\BOOKMARK [1][-]{section.6}{\376\377\000O\000p\000e\000r\000a\000t\000i\000o\000n\000\040\000i\000n\000s\000t\000r\000u\000c\000t\000i\000o\000n\000s}{}% 7
\BOOKMARK [1][-]{section.7}{\376\377\000V\000a\000l\000i\000d\000a\000t\000i\000o\000n\000\040\000a\000n\000d\000\040\000c\000h\000a\000r\000a\000c\000t\000e\000r\000i\000z\000a\000t\000i\000o\000n}{}% 8
